{
	"gtsm": {
		"Teacher": [
			"VAGU",
			"DEMAEY",
			"PAT",
			"TIRRYM",
			"GEER",
			"PEL",
			"LEM",
			"HOFM",
			"DEKO",
			"COL",
			"VDEYN",
			"ROBYNS",
			"DECRO",
			"VWPAT",
			"VAHOE",
			"TROCH",
			"HERTO",
			"PEIR",
			"DECLIP",
			"DLEA",
			"SULS",
			"VABI",
			"ROB",
			"DERI",
			"TIRR",
			"VANCRA",
			"SIEB",
			"DEBLE",
			"MANTH",
			"VERMEIR",
			"VDJ",
			"PEET",
			"CALUW",
			"HUYG",
			"DHADI",
			"DESM",
			"OZC"
		],
		"Class": [
			"1TECHNO",
			"1BTECH",
			"2BSTEM",
			"2STEMW",
			"2STEMT",
			"3BM",
			"4MT",
			"3MT",
			"3IWA",
			"4IWA",
			"4EM",
			"4BM",
			"7VER",
			"3EM",
			"3IWB",
			"4IWB",
			"1INGA"
		],
		"Lokaal": []
	}
}
